Is There ‘REALLY’ Variety in Foundation Shades
…
#joining to make unified table

shades <- shades %>% left_join(cielab,"shade_id")
shades<- shades %>% left_join(products,"product_id")
shades <- shades %>% left_join(brands, 'brand_id') %>% select(brand_name,shade_name,product_id,name,skintone,undertone,monk_category,L)
shades

## # A tibble: 9,844 × 8
##    brand_name shade_name product_id name  skintone undertone monk_category     L
##    <chr>      <chr>           <dbl> <chr> <chr>    <chr>             <dbl> <dbl>
##  1 About Face L2OLIVE             1 <NA>  <NA>     <NA>                  4  89.7
##  2 About Face L2Neutral           1 <NA>  <NA>     Neutral               4  87.3
##  3 About Face L2PEACH             1 <NA>  <NA>     Peach                 5  84.0
##  4 About Face LM2OLIVE            1 <NA>  <NA>     <NA>                  5  84.3
##  5 About Face LM1COOL             1 <NA>  <NA>     Cool                  5  83.8
##  6 About Face LM1Warm             1 <NA>  Light M… Warm                  5  83.9
##  7 About Face LM2Neutral          1 <NA>  <NA>     Neutral               5  81.7
##  8 About Face LM2PEACH            1 <NA>  <NA>     Peach                 5  83.4
##  9 About Face LM1Neutral          1 <NA>  <NA>     Neutral               4  86.4
## 10 About Face L1COOL              1 <NA>  <NA>     Cool                  4  89.6
## # ℹ 9,834 more rows
…
as_tibble(two_counts)

## # A tibble: 105 × 2
##    brand_name              count
##    <chr>                   <int>
##  1 About Face                 45
##  2 Ami Colé                   33
##  3 AMOREPACIFIC                5
##  4 Anastasia Beverly Hills   114
##  5 Armani Beauty             108
##  6 Au Naturale                30
##  7 bareMinerals              181
##  8 BASMA                      42
##  9 Beautyblender              60
## 10 BLK/OPL                    35
## # ℹ 95 more rows
…
shades %>% mutate(skintone,undertone)

## # A tibble: 9,844 × 9
##    brand_name shade_name product_id name  skintone undertone monk_category     L
##    <chr>      <chr>           <dbl> <chr> <chr>    <chr>             <dbl> <dbl>
##  1 About Face L2OLIVE             1 <NA>  <NA>     <NA>                  4  89.7
##  2 About Face L2Neutral           1 <NA>  <NA>     Neutral               4  87.3
##  3 About Face L2PEACH             1 <NA>  <NA>     Peach                 5  84.0
##  4 About Face LM2OLIVE            1 <NA>  <NA>     <NA>                  5  84.3
##  5 About Face LM1COOL             1 <NA>  <NA>     Cool                  5  83.8
##  6 About Face LM1Warm             1 <NA>  Light M… Warm                  5  83.9
##  7 About Face LM2Neutral          1 <NA>  <NA>     Neutral               5  81.7
##  8 About Face LM2PEACH            1 <NA>  <NA>     Peach                 5  83.4
##  9 About Face LM1Neutral          1 <NA>  <NA>     Neutral               4  86.4
## 10 About Face L1COOL              1 <NA>  <NA>     Cool                  4  89.6
## # ℹ 9,834 more rows
## # ℹ 1 more variable: hex_color <chr>
…
